// Jest Snapshot v1, https://goo.gl/fbAQLP

exports[`Molecules/HtmlContent HtmlContent should render correctly 1`] = `
<div
  class="html-content"
  role="html"
>
  <p>
    Hello World
  </p>
</div>
`;
