// Jest Snapshot v1, https://goo.gl/fbAQLP

exports[`Pages/404 Jumbotron render correctly with json is empty 1`] = `null`;

exports[`Pages/404 Jumbotron should render correctly 1`] = `
<div
  class="jumbotron img-right"
  data-ee-creative="Jumbotron"
  data-ee-id="/content/dam/teco-cms-ecosystem/errors/404-mobile.png"
  data-ee-name="Jumbotron No encontramos lapágina que estás buscando "
  data-ee-position="1"
  data-ee-type="promo"
>
  <div
    class="valign-wrapper "
  >
    <div
      class="valign-wrapper__content"
    >
      <div
        class="valign-wrapper__title"
        role="html"
      >
        <p>
          No encontramos la
        </p>
        

        <p>
          página que estás buscando
        </p>
        

      </div>
      <a
        class="label"
        data-ee-element="promoClick"
        href="https://www.personal.com.ar/"
        target="_blank"
      >
        <p>
          Volver al inicio
        </p>
      </a>
    </div>
  </div>
  <div
    class="jumbotron__img show-on-small hide-on-med-and-up"
  >
    <div
      class="image-container"
    >
      <img
        alt="404 mobile"
        src="https://publish-p32363-e119350.adobeaemcloud.com/content/dam/teco-cms-ecosystem/errors/404-mobile.png"
      />
    </div>
  </div>
  <div
    class="jumbotron__img show-on-large hide-on-small-only"
  >
    <div
      class="image-container"
    >
      <img
        alt="404 desk"
        src="https://publish-p32363-e119350.adobeaemcloud.com/content/dam/teco-cms-ecosystem/errors/404-desk.png"
      />
    </div>
  </div>
</div>
`;

exports[`Pages/404 Jumbotron with left alignment should render correctly 1`] = `
<div
  class="jumbotron container"
  data-ee-creative="Jumbotron"
  data-ee-id="/content/dam/teco-cms-ecosystem/errors/404-mobile.png"
  data-ee-name="Jumbotron No encontramos lapágina que estás buscando "
  data-ee-position="1"
  data-ee-type="promo"
>
  <div
    class="valign-wrapper "
  >
    <div
      class="valign-wrapper__content"
    >
      <div
        class="valign-wrapper__title"
        role="html"
      >
        <p>
          No encontramos la
        </p>
        

        <p>
          página que estás buscando
        </p>
        

      </div>
      <a
        class="label"
        data-ee-element="promoClick"
        href="https://www.personal.com.ar/"
        target="_blank"
      >
        <p>
          Volver al inicio
        </p>
      </a>
    </div>
  </div>
  <div
    class="jumbotron__img show-on-small hide-on-med-and-up"
  >
    <div
      class="image-container"
    >
      <img
        alt="404 mobile"
        src="https://publish-p32363-e119350.adobeaemcloud.com/content/dam/teco-cms-ecosystem/errors/404-mobile.png"
      />
    </div>
  </div>
  <div
    class="jumbotron__img show-on-large hide-on-small-only"
  >
    <div
      class="image-container"
    >
      <img
        alt="404 desk"
        src="https://publish-p32363-e119350.adobeaemcloud.com/content/dam/teco-cms-ecosystem/errors/404-desk.png"
      />
    </div>
  </div>
</div>
`;

exports[`Pages/404 Jumbotron with variant 404 and background alignment should render correctly 1`] = `
<div
  class="jumbotron container jumbotron404 background"
  data-ee-creative="banner"
  data-ee-id="/content/dam/teco-cms-ecosystem/errors/404-mobile.png"
  data-ee-name="banner No encontramos lapágina que estás buscando "
  data-ee-position="1"
  data-ee-type="promo"
>
  <div
    class="valign-wrapper background-wrapper"
  >
    <div
      class="valign-wrapper__content"
    >
      <div
        class="valign-wrapper__title"
        role="html"
      >
        <p>
          No encontramos la
        </p>
        

        <p>
          página que estás buscando
        </p>
        

      </div>
      <a
        class="label404"
        data-ee-element="promoClick"
        href="https://www.personal.com.ar/"
        target="_blank"
      >
        <p>
          Volver al inicio
        </p>
      </a>
    </div>
  </div>
  <div
    class="jumbotron__img background-img hide-on-large-only"
  >
    <div
      class="image-container"
    >
      <img
        alt="404 mobile"
        src="https://publish-p32363-e119350.adobeaemcloud.com/content/dam/teco-cms-ecosystem/errors/404-mobile.png"
      />
    </div>
  </div>
  <div
    class="jumbotron__img background-img hide-on-med-and-down"
  >
    <div
      class="image-container"
    >
      <img
        alt="404 desk"
        src="https://publish-p32363-e119350.adobeaemcloud.com/content/dam/teco-cms-ecosystem/errors/404-desk.png"
      />
    </div>
  </div>
</div>
`;

exports[`Pages/404 Jumbotron with variant background should render data-ee-name correctly 1`] = `
<div
  class="jumbotron container jumbotron404 background"
  data-ee-creative="banner"
  data-ee-id="/content/dam/teco-cms-ecosystem/errors/404-mobile.png"
  data-ee-name="banner  "
  data-ee-position="1"
  data-ee-type="promo"
>
  <div
    class="valign-wrapper background-wrapper"
  >
    <div
      class="valign-wrapper__content"
    >
      <div
        class="valign-wrapper__title"
        role="html"
      >
        <p>
          No encontramos la
        </p>
        

        <p>
          página que estás buscando
        </p>
        

      </div>
      <a
        class="label404"
        data-ee-element="promoClick"
        href="https://www.personal.com.ar/"
        target="_blank"
      >
        <p>
          Volver al inicio
        </p>
      </a>
    </div>
  </div>
  <div
    class="jumbotron__img background-img hide-on-large-only"
  >
    <div
      class="image-container"
    >
      <img
        alt="404 mobile"
        src="https://publish-p32363-e119350.adobeaemcloud.com/content/dam/teco-cms-ecosystem/errors/404-mobile.png"
      />
    </div>
  </div>
  <div
    class="jumbotron__img background-img hide-on-med-and-down"
  >
    <div
      class="image-container"
    >
      <img
        alt="404 desk"
        src="https://publish-p32363-e119350.adobeaemcloud.com/content/dam/teco-cms-ecosystem/errors/404-desk.png"
      />
    </div>
  </div>
</div>
`;

exports[`Pages/404 Jumbotron with variant left should render data-ee-name correctly 1`] = `
<div
  class="jumbotron container"
  data-ee-creative="Jumbotron"
  data-ee-id="/content/dam/teco-cms-ecosystem/errors/404-mobile.png"
  data-ee-name="Jumbotron  "
  data-ee-position="1"
  data-ee-type="promo"
>
  <div
    class="valign-wrapper "
  >
    <div
      class="valign-wrapper__content"
    >
      <div
        class="valign-wrapper__title"
        role="html"
      >
        <p>
          No encontramos la
        </p>
        

        <p>
          página que estás buscando
        </p>
        

      </div>
      <a
        class="label"
        data-ee-element="promoClick"
        href="https://www.personal.com.ar/"
        target="_blank"
      >
        <p>
          Volver al inicio
        </p>
      </a>
    </div>
  </div>
  <div
    class="jumbotron__img show-on-small hide-on-med-and-up"
  >
    <div
      class="image-container"
    >
      <img
        alt="404 mobile"
        src="https://publish-p32363-e119350.adobeaemcloud.com/content/dam/teco-cms-ecosystem/errors/404-mobile.png"
      />
    </div>
  </div>
  <div
    class="jumbotron__img show-on-large hide-on-small-only"
  >
    <div
      class="image-container"
    >
      <img
        alt="404 desk"
        src="https://publish-p32363-e119350.adobeaemcloud.com/content/dam/teco-cms-ecosystem/errors/404-desk.png"
      />
    </div>
  </div>
</div>
`;
